<svg xmlns="http://www.w3.org/2000/svg" xmlns:xlink="http://www.w3.org/1999/xlink" width="40" height="40" viewBox="0 0 40 40">
    <defs>
        <path id="a" d="M39 12.01V9a1 1 0 0 0-1-1H2a1 1 0 0 0-1 1v1h21.5c.048 0 .096.01.142.028 1.647.155 1.426 1.849 1.394 1.981H39zM1 13.017V31a1 1 0 0 0 1 1h36a1 1 0 0 0 1-1V15H21.5c-1.372-.298-1.494-.895-1.5-1.981H1zM2 7h36a2 2 0 0 1 2 2v22a2 2 0 0 1-2 2H2a2 2 0 0 1-2-2V9a2 2 0 0 1 2-2zm18.5 12h11a.5.5 0 1 1 0 1h-11a.5.5 0 1 1 0-1zm0 4h11a.5.5 0 1 1 0 1h-11a.5.5 0 1 1 0-1zm0 4h11a.5.5 0 1 1 0 1h-11a.5.5 0 1 1 0-1zM1 11v1h20.5l-.472 1.333A.5.5 0 0 0 21.5 14H39v-1H22.5l.472-1.333A.5.5 0 0 0 22.5 11H1zm8.5 13c3.59 0 6.5 2.686 6.5 6H3c0-3.314 2.91-6 6.5-6zm0 1c-2.674 0-4.88 1.73-5.39 4h10.78c-.51-2.27-2.716-4-5.39-4zm0-2a3.5 3.5 0 1 1 0-7 3.5 3.5 0 0 1 0 7zm0-1a2.5 2.5 0 1 0 0-5 2.5 2.5 0 0 0 0 5z"/>
    </defs>
    <g fill="none" fill-rule="evenodd">
        <mask id="b" fill="#fff">
            <use xlink:href="#a"/>
        </mask>
        <use fill="#000" fill-rule="nonzero" xlink:href="#a"/>
        <g fill="#262626" fill-rule="nonzero" mask="url(#b)">
            <path d="M0 0h40v40H0z"/>
        </g>
    </g>
</svg>
