<svg xmlns="http://www.w3.org/2000/svg" xmlns:xlink="http://www.w3.org/1999/xlink" width="24" height="24" viewBox="0 0 24 24">
    <defs>
        <path id="a" d="M17 9.697c.56-.07 1.118-.15 1.674-.241A2 2 0 0 1 21 11.429v9.922a2 2 0 0 1-1.652 1.97C16.786 23.772 14.336 24 12 24c-2.893 0-5.672-.228-8.337-.683A2 2 0 0 1 2 21.345v-9.982a2 2 0 0 1 2.296-1.978c.576.086 1.144.163 1.704.231V6a5 5 0 0 1 5-5h1a5 5 0 0 1 5 5v3.697zm-1 .11V6a4 4 0 0 0-4-4h-1a4 4 0 0 0-4 4v3.729c1.742.18 3.408.271 5 .271 1.344 0 2.678-.064 4-.193zm-11.852.567A1 1 0 0 0 3 11.363v9.982a1 1 0 0 0 .832.986C6.44 22.777 9.162 23 12 23c2.276 0 4.667-.221 7.174-.665a1 1 0 0 0 .826-.984v-9.922a1 1 0 0 0-1.163-.987A41.814 41.814 0 0 1 12 11c-2.45 0-5.066-.209-7.852-.626zM11.5 14a.5.5 0 0 1 .5.5v4a.5.5 0 1 1-1 0v-4a.5.5 0 0 1 .5-.5z"/>
    </defs>
    <g fill="none" fill-rule="evenodd">
        <mask id="b" fill="#fff">
            <use xlink:href="#a"/>
        </mask>
        <use fill="#000" fill-rule="nonzero" xlink:href="#a"/>
        <g fill="#262626" fill-rule="nonzero" mask="url(#b)">
            <path d="M0 0h24v24H0z"/>
        </g>
    </g>
</svg>
